{
    "predictions": [
      {
        "quantiles": {
          "0.9": [
            547.9868774414,
            609.4877929688,
            606.0098876953,
            619.2634277344,
            554.7513427734,
            707.9643554688,
            478.6410827637,
            353.1432189941,
            354.4426879883,
            516.6192016602,
            618.8070068359,
            455.5322265625,
            418.3274230957,
            430.6804199219
          ]
        }
      },
      {
        "quantiles": {
          "0.9": [
            17.1238250732,
            14.7716293335,
            15.6274003983,
            17.679479599,
            13.6874055862,
            13.4404850006,
            12.5104999542,
            11.7339372635,
            17.6770153046,
            15.1833534241,
            15.5041828156,
            16.5558834076,
            14.819937706,
            18.3260650635
          ]
        }
      },
      {
        "quantiles": {
          "0.9": [
            14.3846588135,
            19.0225505829,
            19.1094512939,
            21.9008693695,
            14.7254247665,
            16.9825592041,
            13.5799875259,
            13.7322969437,
            17.0865497589,
            15.3490352631,
            12.3410835266,
            15.6188545227,
            14.8739461899,
            11.7413320541
          ]
        }
      },
      {
        "quantiles": {
          "0.9": [
            55.4723777771,
            67.0459289551,
            75.2608032227,
            70.2114639282,
            72.0093154907,
            81.864402771,
            75.498626709,
            65.8916778564,
            78.8846588135,
            72.9309768677,
            64.7577819824,
            66.5710067749,
            77.6396102905,
            82.368637085
          ]
        }
      },
      {
        "quantiles": {
          "0.9": [
            107.5862731934,
            129.3784179688,
            160.0878601074,
            142.3643798828,
            120.4813613892,
            118.3299179077,
            109.9044952393,
            106.8941040039,
            109.5101928711,
            120.6898117065,
            123.4375305176,
            138.9418334961,
            131.1474609375,
            142.3992462158
          ]
        }
      }
    ]
  }